Feature engineering & interpretable for xgboost with board game ratings
…
Tune an xgboost model

select     matches()  min  max .   na.omit()  NA     

library(tidymodels)

preprocess <- 
  ratings_joined %>% 
  select(name, average, matches("min|max"), boardgamecategory) %>% 
  na.omit()

preprocess

## # A tibble: 21,348 x 8
##    name             average minplayers maxplayers minplaytime maxplaytime minage
##    <chr>              <dbl>      <dbl>      <dbl>       <dbl>       <dbl>  <dbl>
##  1 Pandemic            7.59          2          4          45          45      8
##  2 Carcassonne         7.42          2          5          30          45      7
##  3 Catan               7.14          3          4          60         120     10
##  4 7 Wonders           7.74          2          7          30          30     10
##  5 Dominion            7.61          2          4          30          30     13
##  6 Ticket to Ride      7.41          2          5          30          60      8
##  7 Codenames           7.6           2          8          15          15     14
##  8 Terraforming Ma~    8.42          1          5         120         120     12
##  9 7 Wonders Duel      8.11          2          2          30          30     10
## 10 Agricola            7.93          1          5          30         150     12
## # ... with 21,338 more rows, and 1 more variable: boardgamecategory <chr>
…
