…
```{r}
who_recipe_juice <- 
  recipe(uk_viewers ~ first_aired, data = episodes) %>% 
  step_date(first_aired, features = "year") %>% 
  prep() %>% juice()

who_recipe_juice

```

- `step_date()`가 제대로 되었는지 확인하기 위해 `recipe()`를 `prep()`하여 `juice()`해 보면 아래와 같은 결과를 얻을 수 있다. 

<!-- > who_recipe_juice -->
<!-- # A tibble: 167 x 3 -->
<!--    first_aired uk_viewers first_aired_year -->
<!--    <date>           <dbl>            <dbl> -->
<!--  1 2005-03-26       10.8              2005 -->
<!--  2 2005-04-02        7.97             2005 -->
<!--  3 2005-04-09        8.86             2005 -->
<!--  4 2005-04-16        7.63             2005 -->
<!--  5 2005-04-23        7.98             2005 -->
<!--  6 2005-04-30        8.63             2005 -->
<!--  7 2005-05-07        8.01             2005 -->
<!--  8 2005-05-14        8.06             2005 -->
<!--  9 2005-05-21        7.11             2005 -->
<!-- 10 2005-05-28        6.86             2005 -->
<!-- # ... with 157 more rows -->
…
who_recipe_juice

```

- `step_holiday()`로 "NewYearsDay", "ChristmasDay"를 구별할 수 있게 한다.  

<!-- > who_recipe_juice -->
<!-- # A tibble: 167 x 3 -->
<!--    uk_viewers first_aired_NewYearsDay first_aired_ChristmasDay -->
<!--         <dbl>                   <dbl>                    <dbl> -->
<!--  1      10.8                        0                        0 -->
<!--  2       7.97                       0                        0 -->
<!--  3       8.86                       0                        0 -->
<!--  4       7.63                       0                        0 -->
<!--  5       7.98                       0                        0 -->
<!--  6       8.63                       0                        0 -->
<!--  7       8.01                       0                        0 -->
<!--  8       8.06                       0                        0 -->
<!--  9       7.11                       0                        0 -->
<!-- 10       6.86                       0                        0 -->
<!-- # ... with 157 more rows -->
…
