…
  - 일반적인 회귀식을 만드는 것 처럼 종속변수(outcome) ~ 독립변수(predictors)로 쓴다. 따라서 "1:4 ~ album_name" 부분은 model fit에 해당하는 부분으로 보면 된다.  
  
  - predictors는 최초 데이터(lyrics)를 확인해보면 album_name을 포함한 9개 column에서 고를 수 있다. 여기서는 album제목으로 topic을 예측하는 것으로 작성해보자.  
  
 <!-- > names(lyrics) -->
 <!-- [1] "artist_name"    "album_name"     "track_number"   "song_id"        "song_name"      "line_number"    -->
 <!-- [7] "section_name"   "line"           "section_artist" -->

  - stm으로 부터 나온 model out(stmobj)는 topic_model이므로 입력해 준다.  
  
  - `tidy_lyrics %>% distinct(song_name, album_name) %>% arrange(song_name)`을 metadata로 쓴다.  

<!-- > tidy_lyrics %>% distinct(song_name, album_name) %>% arrange(song_name) -->
<!-- # A tibble: 31 x 2 -->
<!--    album_name song_name                  -->
<!--    <chr>      <chr>                      -->
<!--  1 Spice      2 Become 1                 -->
<!--  2 Spiceworld Denying                    -->
<!--  3 Spiceworld Do It                      -->
<!--  4 Forever    Get Down With Me           -->
<!--  5 Forever    Goodbye                    -->
<!--  6 Forever    Holler                     -->
<!--  7 Spice      If U Can't Dance           -->
<!--  8 Forever    If You Wanna Have Some Fun -->
<!--  9 Spice      Last Time Lover            -->
<!-- 10 Forever    Let Love Lead the Way      -->
<!-- # ... with 21 more rows -->
…
