Topic modeling for Spice Girls lyrics
…
lyrics %>% distinct(album_name)

## # A tibble: 3 x 1
##   album_name
##   <chr>     
## 1 Spice     
## 2 Spiceworld
## 3 Forever

lyrics %>% distinct(album_name, song_name)

## # A tibble: 31 x 2
##    album_name song_name                 
##    <chr>      <chr>                     
##  1 Spice      "Wannabe"                 
##  2 Spice      "Say You\x92ll Be There"  
##  3 Spice      "2 Become 1"              
##  4 Spice      "Love Thing"              
##  5 Spice      "Last Time Lover"         
##  6 Spice      "Mama"                    
##  7 Spice      "Who Do You Think You Are"
##  8 Spice      "Something Kinda Funny"   
##  9 Spice      "Naked"                   
## 10 Spice      "If U Can\x92t Dance"     
## # ... with 21 more rows
…
## Joining, by = "word"

     .

count()      . get, love, know, time, wanna        .

conut() song_name argument      .

tidy_lyrics %>% count(word, sort = TRUE)

## # A tibble: 979 x 2
##    word      n
##    <chr> <int>
##  1 get     153
##  2 love    137
##  3 know    124
##  4 time    106
##  5 wanna   102
##  6 never   101
##  7 oh       88
##  8 yeah     88
##  9 la       85
## 10 got      82
## # ... with 969 more rows

tidy_lyrics %>% count(song_name, word, sort = TRUE)

## # A tibble: 2,206 x 3
##    song_name                       word           n
##    <chr>                           <chr>      <int>
##  1 Saturday Night Divas            get           91
##  2 Spice Up Your Life              la            64
##  3 If U Can't Dance                dance         60
##  4 Holler                          holler        48
##  5 Never Give Up on the Good Times never         47
##  6 Move Over                       generation    41
##  7 Saturday Night Divas            deeper        41
##  8 Move Over                       yeah          39
##  9 Something Kinda Funny           got           39
## 10 Never Give Up on the Good Times give          38
## # ... with 2,196 more rows
…
Explore topic model results

      tidy() .

argument matrix = "beta"   beta .

beta topic word probability  .   topic  (word)     .

  baby beta topic 1 8.22e-3, topic 2 1.83e-2    .    beta   topic 1 get beta = 0.0773. (       .       .)

word_topics <- tidy(topic_model, matrix = "beta")

word_topics

## # A tibble: 3,916 x 3
##    topic term        beta
##    <int> <chr>      <dbl>
##  1     1 achieve 1.41e- 3
##  2     2 achieve 2.12e- 4
##  3     3 achieve 5.61e- 9
##  4     4 achieve 3.76e-15
##  5     1 baby    8.22e- 3
##  6     2 baby    1.83e- 2
##  7     3 baby    2.24e- 6
##  8     4 baby    4.32e- 3
##  9     1 back    1.87e- 2
## 10     2 back    5.99e- 4
## # ... with 3,906 more rows
…
word_topics   tidy()  topic_model matrix .

 beta   gamma  matrix = "gamma" . gamma  topic     .

?stm_tidiers     matrix   Whether to tidy the beta (per-term-per-topic, default) or gamma/theta (per-document-per-topic) matrix. The stm package calls this the theta matrix, but other topic modeling packages call this gamma.   .   topic  term(word) probability   beta   topic  document(song) probability    gamma .

document_names argument  Optional vector of document names for use with per-document-per-topic tidying .  topic  document(song)     , document   document (song)  .  31 topic gamma   31 X 4 topic = 124   topic 31  document  (=rownames(lyrics_sparse)) .

song_topics <- tidy(topic_model, matrix = "gamma", 
                    document_names = rownames(lyrics_sparse))

song_topics

## # A tibble: 124 x 3
##    document                   topic    gamma
##    <chr>                      <int>    <dbl>
##  1 2 Become 1                     1 0.370   
##  2 Denying                        1 0.00165 
##  3 Do It                          1 0.994   
##  4 Get Down With Me               1 0.479   
##  5 Goodbye                        1 0.000666
##  6 Holler                         1 0.00168 
##  7 If U Can't Dance               1 0.000879
##  8 If You Wanna Have Some Fun     1 0.954   
##  9 Last Time Lover                1 0.997   
## 10 Let Love Lead the Way          1 0.00149 
## # ... with 114 more rows
…
